%YAML 1.1
%TAG !u! tag:unity3d.com,2011:
--- !u!1045 &1
EditorBuildSettings:
  m_ObjectHideFlags: 0
  serializedVersion: 2
  m_Scenes:
  - enabled: 1
    path: Assets/Scenes/MainMenu.unity
    guid: 388ae8409bc657e4cab3662135631154
  - enabled: 1
    path: Assets/Scenes/Scene 1.unity
    guid: ffc7bd303924ba74fa17ed33026e9461
  - enabled: 1
    path: Assets/Scenes/Scene 2.unity
    guid: 0136f8f91b855304a8dab5b229e7c102
  - enabled: 1
    path: Assets/Scenes/Scene 3.unity
    guid: 3ff0e88cae09327449b5805faf0be8ce
  - enabled: 1
    path: Assets/Scenes/Scene 4.unity
    guid: c814274c66ae24e44b4a1ed129b447e1
  - enabled: 1
    path: Assets/Scenes/Scene 4_insane.unity
    guid: fc212c2f985db084aadb84966612fb9a
  - enabled: 1
    path: Assets/Scenes/Scene 5.unity
    guid: 2cd024cb79b556f4b92246e5cf446365
  - enabled: 1
    path: Assets/Scenes/Scene 5 FIRE.unity
    guid: ccb09b1fe9cb4ac47b637f84c3e64b1f
  - enabled: 1
    path: Assets/Scenes/Credits.unity
    guid: 21a8f8a3cb9dcf64e862c2e58568cd4d
  m_configObjects: {}
