%YAML 1.1
%TAG !u! tag:unity3d.com,2011:
--- !u!21 &2100000
Material:
  serializedVersion: 6
  m_ObjectHideFlags: 0
  m_CorrespondingSourceObject: {fileID: 0}
  m_PrefabInstance: {fileID: 0}
  m_PrefabAsset: {fileID: 0}
  m_Name: TransparentSea
  m_Shader: {fileID: 4800000, guid: 8eb3b63437aac374d93a46439d0f21e2, type: 3}
  m_ShaderKeywords: 
  m_LightmapFlags: 4
  m_EnableInstancingVariants: 1
  m_DoubleSidedGI: 0
  m_CustomRenderQueue: -1
  stringTagMap: {}
  disabledShaderPasses: []
  m_SavedProperties:
    serializedVersion: 3
    m_TexEnvs:
    - _MainTex:
        m_Texture: {fileID: 2800000, guid: 403ab31ff043eff4ea4124a30eb5cdcc, type: 3}
        m_Scale: {x: 1, y: 1}
        m_Offset: {x: 0, y: 0}
    - _Tex:
        m_Texture: {fileID: 2800000, guid: 6630628f1b8a442d69da16b374c1eb0e, type: 3}
        m_Scale: {x: 1, y: 1}
        m_Offset: {x: 0, y: 0}
    - _Texture:
        m_Texture: {fileID: 2800000, guid: 584a75c01ab0bff48a6ee8b535cb8b03, type: 3}
        m_Scale: {x: 1, y: 1}
        m_Offset: {x: 0, y: 0}
    m_Floats:
    - _Alpha: 0.72
    - _Blend: 1.3
    - _Cutoff: 0.5
    - _Depth_Fade: 3.17
    - _Fresnel_Colour_Bias: 0
    - _Fresnel_Colour_Scale: 1
    - _Gloss: 0.72
    - _Glossiness: 0.5
    - _Metallic: 0
    - _Refraction: 2.2
    - _Spec: 0.433
    - _Speed: 1
    - _Tex_World_Scale: 0.2
    - _Time: 2
    - _Water_Colour_Power: 2
    - _Water_Power: 2
    - __dirty: 0
    m_Colors:
    - _Color: {r: 1, g: 1, b: 1, a: 1}
    - _Color_1: {r: 0.5372549, g: 0.5058824, b: 0.4901961, a: 1}
    - _Color_2: {r: 1, g: 1, b: 1, a: 1}
    - _Depth_Color: {r: 1, g: 1, b: 1, a: 1}
    - _SpecColor: {r: 1, g: 1, b: 1, a: 1}
